5,25,1715991067663
6,36,1715991067665
25,625,1715991067665
76,5776,1715991067665
376,141376,1715991067665
625,390625,1715991067666
9376,87909376,1715991067668
90625,8212890625,1715991067688
109376,11963109376,1715991067692
890625,793212890625,1715991067866
2890625,8355712890625,1715991068131
7109376,50543227109376,1715991068324
12890625,166168212890625,1715991068619
87109376,7588043387109376,1715991071869
212890625,45322418212890625,1715991077278
787109376,619541169787109376,1715991102828
1787109376,3193759921787109376,1715991146491
8212890625,67451572418212890625,1715991466852
18212890625,331709384918212890625,1715992094251
